divipola,departamento,EDAD,HOMBRES_1985,MUJERES_1985,HOMBRES_1993,MUJERES_1993,HOMBRES_2005,MUJERES_2005,HOMBRES_2018,MUJERES_2018
50,Meta,0-4,6.73,6.34,6.45,6.25,5.5,5.2,3.83,3.64
50,Meta,5-9,6.91,6.55,6.42,6.16,5.71,5.32,4.24,4.03
50,Meta,10-14,6.4,5.97,6.28,6.05,5.76,5.57,4.72,4.47
50,Meta,15-19,5.57,5.97,5.08,5.08,4.89,4.85,4.86,4.41
50,Meta,20-24,4.59,5.19,4.34,4.59,4.39,4.44,4.58,4.33
50,Meta,25-29,4.07,4.27,4.26,4.4,3.94,4.05,4.25,4.12
50,Meta,30-34,3.52,3.25,3.98,3.92,3.48,3.64,3.9,3.82
50,Meta,35-39,3.34,2.95,3.3,3.24,3.4,3.62,3.75,3.69
50,Meta,40-44,2.66,2.01,2.76,2.35,3.15,3.22,3.17,3.18
50,Meta,45-49,2.15,1.64,2.14,1.77,2.54,2.62,2.92,2.99
50,Meta,50-54,1.84,1.37,1.88,1.47,1.99,1.99,2.74,2.82
50,Meta,55-59,1.24,0.93,1.32,1.04,1.58,1.54,2.31,2.39
50,Meta,60-64,1.02,0.73,1.17,0.91,1.23,1.15,1.71,1.84
50,Meta,65-69,0.64,0.5,0.73,0.59,1.03,0.97,1.3,1.31
50,Meta,70-74,0.47,0.33,0.55,0.42,0.75,0.7,0.92,0.94
50,Meta,75-79,0.23,0.19,0.32,0.24,0.49,0.48,0.67,0.65
50,Meta,80-84,0.13,0.1,0.16,0.15,0.25,0.25,0.4,0.42
50,Meta,85-89,0.05,0.05,0.06,0.06,0.12,0.12,0.2,0.22
50,Meta,90-94,0.02,0.02,0.03,0.03,0.03,0.04,0.07,0.08
50,Meta,95-99,0.01,0.02,0.01,0.01,0.01,0.01,0.02,0.02
50,Meta,100+,0,0,0,0,0,0,0.01,0.01