divipola,departamento,EDAD,HOMBRES_1985,MUJERES_1985,HOMBRES_1993,MUJERES_1993,HOMBRES_2005,MUJERES_2005,HOMBRES_2018,MUJERES_2018
54,N. Santander,0-4,6.79,6.51,6.25,5.96,5.24,4.93,3.82,3.62
54,N. Santander,5-9,6.84,6.56,6.36,6.17,5.42,5.13,4.17,3.95
54,N. Santander,10-14,6.49,6.19,6.35,6.08,5.66,5.36,4.49,4.21
54,N. Santander,15-19,5.64,6.04,5.12,5.21,5.1,4.99,4.59,4.4
54,N. Santander,20-24,4.66,5.15,4.51,4.82,4.48,4.59,4.63,4.51
54,N. Santander,25-29,3.77,4.11,4,4.32,3.85,3.98,4.26,4.15
54,N. Santander,30-34,3.16,3.17,3.72,3.84,3.35,3.6,3.81,3.82
54,N. Santander,35-39,2.75,2.8,2.99,3.17,3.25,3.55,3.55,3.68
54,N. Santander,40-44,2.16,2.05,2.51,2.42,3,3.21,2.95,3.19
54,N. Santander,45-49,1.84,1.84,1.88,1.87,2.51,2.7,2.78,3.1
54,N. Santander,50-54,1.61,1.6,1.65,1.64,2.03,2.14,2.58,2.94
54,N. Santander,55-59,1.16,1.16,1.19,1.25,1.59,1.68,2.25,2.55
54,N. Santander,60-64,1.03,1.05,1.13,1.2,1.22,1.3,1.77,2.04
54,N. Santander,65-69,0.68,0.7,0.73,0.79,1.01,1.14,1.34,1.52
54,N. Santander,70-74,0.56,0.58,0.6,0.64,0.73,0.88,0.93,1.1
54,N. Santander,75-79,0.31,0.31,0.37,0.41,0.54,0.66,0.67,0.84
54,N. Santander,80-84,0.18,0.22,0.23,0.27,0.3,0.38,0.4,0.57
54,N. Santander,85-89,0.07,0.09,0.09,0.11,0.15,0.2,0.21,0.32
54,N. Santander,90-94,0.03,0.04,0.04,0.06,0.05,0.07,0.08,0.13
54,N. Santander,95-99,0.02,0.04,0.02,0.03,0.01,0.02,0.02,0.04
54,N. Santander,100+,0,0,0,0,0,0,0.01,0.01