divipola,departamento,EDAD,HOMBRES_1985,MUJERES_1985,HOMBRES_1993,MUJERES_1993,HOMBRES_2005,MUJERES_2005,HOMBRES_2018,MUJERES_2018
73,Tolima,0-4,6.11,5.82,6.05,5.6,4.94,4.67,3.3,3.13
73,Tolima,5-9,6.61,6.31,6.03,5.67,5.46,5.19,3.76,3.58
73,Tolima,10-14,6.46,6.08,6.21,5.73,5.64,5.35,4.26,4.02
73,Tolima,15-19,5.8,5.73,4.98,4.78,4.69,4.56,4.52,4.18
73,Tolima,20-24,4.43,4.83,4.16,4.31,3.59,3.81,4.05,3.91
73,Tolima,25-29,3.56,4,3.85,4.11,3.31,3.54,3.63,3.59
73,Tolima,30-34,3.12,3.16,3.65,3.79,3.1,3.36,3.25,3.33
73,Tolima,35-39,2.96,3.08,3.14,3.33,3.19,3.46,3.27,3.38
73,Tolima,40-44,2.35,2.2,2.71,2.56,3.2,3.42,2.92,3.12
73,Tolima,45-49,2.06,1.98,2.16,2.09,2.74,2.9,2.96,3.21
73,Tolima,50-54,1.91,1.82,1.99,1.88,2.4,2.4,3.01,3.31
73,Tolima,55-59,1.44,1.33,1.5,1.41,1.97,1.97,2.75,3
73,Tolima,60-64,1.26,1.12,1.47,1.37,1.59,1.61,2.33,2.51
73,Tolima,65-69,0.86,0.79,1.02,0.94,1.36,1.36,1.89,2
73,Tolima,70-74,0.67,0.61,0.78,0.73,1.04,1.1,1.44,1.53
73,Tolima,75-79,0.4,0.36,0.51,0.48,0.76,0.81,1.04,1.15
73,Tolima,80-84,0.22,0.22,0.29,0.3,0.42,0.45,0.66,0.8
73,Tolima,85-89,0.1,0.1,0.12,0.13,0.2,0.25,0.36,0.46
73,Tolima,90-94,0.03,0.04,0.05,0.06,0.07,0.09,0.13,0.18
73,Tolima,95-99,0.03,0.04,0.02,0.03,0.01,0.02,0.03,0.05
73,Tolima,100+,0,0,0,0,0,0,0.01,0.01