divipola,departamento,EDAD,HOMBRES_1985,MUJERES_1985,HOMBRES_1993,MUJERES_1993,HOMBRES_2005,MUJERES_2005,HOMBRES_2018,MUJERES_2018
8001,Barranquilla,0-4,6.11,5.82,5.1,4.9,4.82,4.53,3.59,3.48
8001,Barranquilla,5-9,5.82,5.57,5.22,5.1,4.77,4.57,3.72,3.61
8001,Barranquilla,10-14,5,4.93,5.42,5.47,4.66,4.52,3.85,3.71
8001,Barranquilla,15-19,5.33,6.62,4.68,5.6,4.57,4.78,4.3,4.17
8001,Barranquilla,20-24,5.91,7.14,4.77,5.94,4.63,5.18,4.37,4.4
8001,Barranquilla,25-29,4.51,5.19,4.46,5.33,4.03,4.48,4.12,4.21
8001,Barranquilla,30-34,3.48,3.66,4.17,4.67,3.32,3.79,3.72,3.91
8001,Barranquilla,35-39,2.75,2.98,3.25,3.68,3.24,3.84,3.58,3.89
8001,Barranquilla,40-44,2.02,2.08,2.59,2.71,3.22,3.77,2.93,3.28
8001,Barranquilla,45-49,1.7,1.87,1.83,2.03,2.66,3.15,2.71,3.1
8001,Barranquilla,50-54,1.48,1.64,1.54,1.74,2.17,2.5,2.69,3.2
8001,Barranquilla,55-59,1.16,1.3,1.19,1.41,1.64,1.93,2.41,2.97
8001,Barranquilla,60-64,0.95,1.05,1.08,1.29,1.16,1.42,1.94,2.42
8001,Barranquilla,65-69,0.66,0.8,0.77,0.95,0.95,1.28,1.44,1.87
8001,Barranquilla,70-74,0.45,0.58,0.6,0.75,0.71,0.99,0.99,1.31
8001,Barranquilla,75-79,0.29,0.39,0.36,0.5,0.54,0.79,0.7,1.01
8001,Barranquilla,80-84,0.15,0.26,0.2,0.31,0.3,0.49,0.45,0.75
8001,Barranquilla,85-89,0.08,0.13,0.09,0.17,0.15,0.28,0.24,0.45
8001,Barranquilla,90-94,0.02,0.04,0.04,0.07,0.05,0.1,0.1,0.21
8001,Barranquilla,95-99,0.01,0.03,0.01,0.02,0.01,0.03,0.03,0.07
8001,Barranquilla,100+,0,0,0,0,0,0.01,0.02,0.03